{
    "name": "gameboard-support",
    "title": "Gameboard Support",
    "description": "A module that enables Foundry to be played on the Gameboard",
    "author": "LastGameboard",
    "version": "1.0.3",
    "minimumCoreVersion": "9",
    "compatibleCoreVersion": "9",
    "dependencies": [
      {
        "name": "touch-vtt"
      }
    ],  
    "esmodules": ["scripts/setup.js"],
    "url": "https://gitlab.com/publiclastgameboard/foundry-gameboard-support",
    "manifest": "https://gitlab.com/publiclastgameboard/foundry-gameboard-support/-/raw/main/module.json",
    "download": "https://gitlab.com/publiclastgameboard/foundry-gameboard-support/-/archive/main/foundry-gameboard-support-main.zip"
  }